0, 0.4
0, 0.2
0, 0.5
0, 0.3
0, 0.6
0, 0.8
0.03132, 0.01
0.00651, 1
0.03763, 0.002
0.03472, 0.006
0, 0.1
0.03556, 0.005
0.0002, 0.06
0.03849, 0.003
0.02505, 0.02
0.03474, 0.004
0.0281, 0.015
0.01122, 0.04
0.01691, 0.03
0.03842, 0.001
0.00505, 0.05
0.0346, 0.008
0.03806, 0.0015
0, 0.08
