0.00069, 1
0.05745, 0.015
0.05857, 0.01
0.01155, 0.5
0.01452, 0.4
0.05016, 0.03
0.00954, 0.6
0.06028, 0.008
0.0283, 0.15
0.0639, 0.003
0.06426, 0.002
0.01948, 0.3
0.03431, 0.1
0.03667, 0.08
0.0546, 0.02
0.06172, 0.005
0.02492, 0.2
0.04104, 0.06
0.06547, 0.001
0.06479, 0.0015
0.06419, 0.004
0.0471, 0.04
0.06122, 0.006
0.00502, 0.8
0.04521, 0.05
