0.0019, 0.002
0.0014, 0.003
0.0009, 0.0015
0.0053, 0.01
0.0032, 0.005
0.0107, 0.02
0.0086, 0.015
0.0036, 0.006
0.0169, 0.05
0.0033, 0.004
0.0157, 0.04
0.0006, 0.001
0.0147, 0.03
0, 0.2
0.001, 0.15
0.0039, 0.008
0.0054, 0.3
0.0198, 0.06
0.04, 0.4
0.0131, 0.1
0.0188, 0.08
