0.002, 0.002
0.0151, 0.02
0.0066, 0.008
0.0032, 0.003
0.0117, 0.015
0.0042, 0.005
0.0299, 0.05
0.0204, 0.03
0.0044, 0.004
0.0018, 0.0015
0.0097, 0.01
0.0006, 0.001
0.0319, 0.06
0.0041, 0.006
0.0259, 0.04
0.0357, 0.08
0.0105, 1
0.0382, 0.1
0.0148, 0.8
0.0235, 0.6
0.0266, 0.5
0.0444, 0.15
0.0344, 0.4
