0.0017, 0.0015
0.0093, 0.008
0.0013, 0.001
0.0076, 0.006
0.0304, 0.03
0.0024, 0.002
0.0344, 0.04
0.0039, 0.003
0.0054, 0.004
0.0112, 0.01
0.0046, 0.005
0.0227, 0.02
0.0167, 0.015
0.0591, 0.08
0.0418, 0.06
0.0381, 0.05
0.0678, 0.1
0.0885, 0.15
0.0988, 0.2
0.1402, 0.3
0.1779, 0.4
