0.0033, 0.005
0.0138, 0.03
0.0108, 0.02
0.0065, 0.01
0.0043, 0.006
0.0004, 0.001
0.001, 0.0015
0.0016, 0.002
0.0396, 0.3
0.0386, 0.5
0.0015, 0.003
0.0095, 0.015
0.0373, 0.15
0.0333, 0.6
0.024, 0.8
0.0188, 0.04
0.0023, 0.004
0.0048, 0.008
0.0329, 0.1
0.0218, 0.05
0.0273, 0.08
0.0363, 0.2
0.0381, 0.4
0.0078, 1
