0.08767, 0.003
0.16644, 0.015
0.99877, 0.4
0.07493, 0.002
0.11294, 0.006
0.13983, 0.01
0.29042, 0.04
0.99972, 1
0.99957, 0.6
0.99457, 0.3
0.96211, 0.2
0.35367, 0.05
0.2366, 0.03
0.19269, 0.02
0.06561, 0.001
0.10326, 0.005
0.06952, 0.0015
0.12667, 0.008
0.09653, 0.004
0.43256, 0.06
0.99942, 0.5
0.99985, 0.8
0.89235, 0.15
0.58138, 0.08
0.70753, 0.1
