0.15972, 0.01
0.34594, 0.05
0.14304, 0.008
0.9548, 0.3
0.86488, 0.2
0.58344, 0.1
0.75901, 0.15
0.98706, 1
0.06673, 0.001
0.08181, 0.002
0.09345, 0.003
0.12502, 0.006
0.99218, 0.8
0.07435, 0.0015
0.11527, 0.005
0.10453, 0.004
0.21705, 0.02
0.3037, 0.04
0.19351, 0.015
0.98267, 0.4
0.99041, 0.6
0.25995, 0.03
0.48807, 0.08
0.39103, 0.06
0.98879, 0.5
