0.07353, 0.002
0.10525, 0.006
0.09854, 0.005
0.08156, 0.003
0.09054, 0.004
0.15048, 0.015
0.19129, 0.03
0.21616, 0.04
0.93839, 0.4
0.97268, 0.6
0.43958, 0.1
0.28099, 0.06
0.35408, 0.08
0.06774, 0.0015
0.11884, 0.008
0.06361, 0.001
0.13192, 0.01
0.98609, 0.8
0.96346, 0.5
0.98677, 1
0.74023, 0.2
0.87772, 0.3
0.16672, 0.02
0.24643, 0.05
0.61473, 0.15
