0.1714, 0.008
0.94298, 1
0.96022, 0.8
0.50478, 0.06
0.08878, 0.002
0.14643, 0.006
0.19094, 0.01
0.10459, 0.003
0.39413, 0.04
0.13466, 0.005
0.44843, 0.05
0.33649, 0.03
0.97471, 0.3
0.70342, 0.1
0.93017, 0.2
0.85986, 0.15
0.07312, 0.001
0.07946, 0.0015
0.11948, 0.004
0.23848, 0.015
0.97217, 0.6
0.98287, 0.5
0.98467, 0.4
0.27515, 0.02
0.61408, 0.08
