0.81573, 0.6
0.04026, 0.004
0.05653, 0.01
0.76299, 0.5
0.08622, 0.08
0.07158, 0.05
0.06269, 0.015
0.06834, 0.02
0.48871, 0.3
0.26627, 0.2
0.02814, 0.001
0.88825, 1
0.04585, 0.006
0.66386, 0.4
0.02936, 0.0015
0.03253, 0.002
0.03593, 0.003
0.04242, 0.005
0.10334, 0.1
0.06953, 0.03
0.0508, 0.008
0.88859, 0.8
0.07073, 0.04
0.07589, 0.06
0.17085, 0.15
