0.06346, 0.01
0.35065, 0.15
0.0447, 0.005
0.89731, 0.3
0.15755, 0.1
0.07648, 0.02
0.07739, 0.03
0.09374, 0.06
0.03114, 0.0015
0.9962, 1
0.99587, 0.8
0.97246, 0.4
0.60649, 0.2
0.02861, 0.001
0.03474, 0.002
0.03843, 0.003
0.9893, 0.6
0.04238, 0.004
0.07036, 0.015
0.98504, 0.5
0.11726, 0.08
0.04864, 0.006
0.05599, 0.008
0.08207, 0.04
0.08541, 0.05
