0.00079, 0.006
0.00108, 0.015
0.00112, 0.01
0, 0.15
0.00142, 0.02
0, 0.2
0.00015, 0.001
0.00022, 0.0015
0.00047, 0.003
0.00068, 0.004
0.00029, 0.002
0.00061, 0.005
0.00078, 0.008
0, 0.05
1e-05, 0.04
0, 0.06
0, 0.08
0.00082, 0.03
0, 0.1
0, 0.3
0, 0.4
0.05833, 1
0.01256, 0.5
0.04414, 0.8
0.02451, 0.6
