0.001, 0.0015
0.00155, 0.003
0.00059, 0.001
0.00109, 0.002
0.00212, 0.004
0.00392, 0.008
0.00252, 0.006
0.00262, 0.005
0.00461, 0.01
0.17076, 1
0.00588, 0.015
0.00682, 0.02
0.06765, 0.2
0.16474, 0.8
0.008, 0.03
0.00998, 0.04
0.1243, 0.4
0.04947, 0.15
0.01199, 0.05
0.01493, 0.06
0.14225, 0.5
0.02063, 0.08
0.09927, 0.3
0.15497, 0.6
0.03009, 0.1
