0.0013, 0.002
0.00576, 0.01
0.0084, 0.02
0.00746, 0.015
0.00254, 0.004
0.00069, 0.001
0.00107, 0.0015
0.00348, 0.006
0.00203, 0.003
0.00342, 0.005
0.00442, 0.008
0.01104, 0.04
0.01375, 0.05
0.03262, 0.15
0.01068, 0.03
0.07886, 0.5
0.01506, 0.06
0.0188, 0.08
0.02284, 0.1
0.0693, 0.4
0.04117, 0.2
0.05639, 0.3
0.08445, 0.6
