0.00198, 0.005
0.00403, 0.015
0.00275, 0.008
0.00296, 0.01
0.0043, 0.02
0.00039, 0.001
0.00056, 0.0015
0.00094, 0.002
0.00126, 0.003
0.00156, 0.004
0.00211, 0.006
0.00385, 0.03
0.0421, 0.2
0.00887, 0.08
0.00405, 0.04
0.00463, 0.05
0.14228, 1
0.00506, 0.06
0.12967, 0.8
0.01396, 0.1
0.02851, 0.15
0.11141, 0.6
0.08511, 0.4
0.10007, 0.5
0.06734, 0.3
