0.0204,0.0066,0.0001,0.001
0.0614,0.0183,0.0004,0.015
0.0742,0.0227,0.0011,0.03
0.0245,0.0086,0,0.0015
0.0327,0.0091,0.0005,0.003
0.0342,0.0106,0.0002,0.004
0.0232,0.0095,0.0001,0.002
0.0501,0.0185,0.0004,0.008
0.307,0.1012,0.023,0.2
0.0372,0.0121,0.0003,0.005
0.1996,0.0647,0.01,0.15
0.1004,0.0293,0.0016,0.06
0.1109,0.0334,0.002,0.08
0.0911,0.0265,0.0012,0.04
0.5711,0.2707,0.0945,0.8
0.5672,0.2159,0.0668,0.4
0.5737,0.251,0.0942,0.6
0.4717,0.1683,0.0478,0.3
0.5819,0.2329,0.0863,0.5
0.0393,0.0127,0.0004,0.006
0.5571,0.252,0.0954,1
0.0918,0.0261,0.0016,0.05
0.1304,0.042,0.0033,0.1
0.0746,0.0219,0.0009,0.02
