0.0669,0.0115,0,0.01
0.026,0.0101,0.0001,0.0015
0.0248,0.0077,0,0.001
0.0297,0.0074,0.0001,0.002
0.0596,0.0143,0.0002,0.008
0.1051,0.0231,0.0019,0.03
0.2454,0.0684,0.0122,0.2
0.0418,0.0108,0,0.004
0.0445,0.0101,0.0005,0.005
0.1181,0.0284,0.0021,0.05
0.0834,0.0156,0.0005,0.015
0.1973,0.0529,0.0059,0.15
0.0893,0.0184,0.0012,0.02
0.1224,0.0256,0.0028,0.06
0.1352,0.0341,0.0027,0.08
0.4192,0.15,0.0355,0.4
0.351,0.1102,0.0262,0.3
0.1584,0.0382,0.0043,0.1
0.5152,0.2187,0.0727,1
0.462,0.1803,0.0504,0.5
03
0.0531,0.0123,0.0002,0.006
0.1114,0.0252,0.0017,0.04
0.4799,0.1905,0.06,0.6
0.5127,0.2239,0.0692,0.8
