0.0209,0.0069,0.0002,0.001
0.0365,0.0107,0.0002,0.006
0.0517,0.0159,0.0007,0.02
0.0253,0.007,0,0.002
0.0295,0.0093,0.0004,0.004
0.0657,0.0212,0.0006,0.08
0.4945,0.2148,0.053,0.5
0.0517,0.0155,0.0008,0.04
0.0286,0.0086,0,0.003
0.0579,0.0175,0.0005,0.06
0.0555,0.0195,0.0007,0.05
0.0368,0.0131,0.0003,0.008
0.1297,0.0432,0.005,0.15
0.439,0.1843,0.0416,0.4
0.0318,0.0102,0.0001,0.005
0.0548,0.0161,0.0004,0.03
0.0466,0.0141,0.0004,0.015
0.1904,0.064,0.009,0.2
0.5227,0.2263,0.062,0.6
0.5611,0.245,0.0842,1
0.5515,0.2638,0.0758,0.8
0.0212,0.0097,0.0002,0.0015
0.0431,0.0137,0.0003,0.01
0.3414,0.1209,0.0271,0.3
0.0814,0.0202,0.0015,0.1
