0, 0.08
1e-05, 0.06
0.02066, 0.02
0.09898, 1
0.03088, 0.01
0, 0.1
0.03509, 0.004
0.0251, 0.015
0, 0.15
0.00661, 0.04
0.01343, 0.03
0.0465, 0.4
0.06613, 0.5
0.03606, 0.003
0.03717, 0.002
3e-05, 0.2
0.0008, 0.05
0.03293, 0.006
0.0323, 0.008
0.03477, 0.005
0.02382, 0.3
0.08904, 0.8
0.03874, 0.0015
0.08027, 0.6
0.03962, 0.001
