0.12886, 1
0.00564, 0.1
0.01314, 0.15
0.01205, 0.05
0.07584, 0.8
0.01523, 0.04
0.03783, 0.002
0.03839, 0.001
0.02543, 0.02
0.02037, 0.03
0.03495, 0.006
0.0315, 0.01
0.00583, 0.08
0.02898, 0.015
0.03406, 0.008
0.03571, 0.005
0.00961, 0.06
0.03913, 0.003
0.03815, 0.0015
0.03444, 0.004
0.05224, 0.6
0.02703, 0.2
