0, 0.15
0, 0.1
0, 0.08
0, 0.2
0, 0.4
0, 0.3
0, 0.06
2e-05, 0.04
0.02711, 0.01
0, 0.05
0.03188, 0.006
0.03287, 0.005
0.05833, 1
0.0157, 0.02
0.0121, 0.5
0.03396, 0.004
0.03481, 0.003
0.03675, 0.002
0.03613, 0.0015
0.02088, 0.015
0.00574, 0.03
0.02922, 0.008
0.03813, 0.001
0.04296, 0.8
0.02492, 0.6
