1, 0.8
1, 1
1, 0.5
1, 0.6
0.02093, 0.001
0.1253, 0.008
0.058, 0.003
0.03996, 0.002
0.07556, 0.004
1, 0.4
0.03211, 0.0015
0.08909, 0.005
0.10471, 0.006
0.16846, 0.015
0.1435, 0.01
0, 0.05
0.00046, 0.04
0.16997, 0.02
0, 0.06
0.99991, 0.3
0, 0.08
0, 0.1
0.10113, 0.03
0, 0.15
0.89893, 0.2
