0.01798, 0.001
0.06413, 0.004
0.02629, 0.0015
0.12175, 0.01
0.05133, 0.003
0.03565, 0.002
0.07847, 0.005
0.10962, 0.008
0.08861, 0.006
0, 0.08
0.00019, 0.04
0.14561, 0.015
0.14475, 0.02
0, 0.1
0.99961, 1
0, 0.05
0, 0.06
0, 0.3
0, 0.2
0, 0.15
0.07976, 0.03
0.99726, 0.8
6e-05, 0.4
0.78623, 0.5
0.95925, 0.6
