0.00014, 0.002
0.00058, 0.008
0.00067, 0.01
0.00012, 0.0015
0.00052, 0.005
0.00025, 0.004
0.00088, 0.04
0.00109, 0.02
0.00057, 0.05
0, 0.2
0, 1
0, 0.8
0, 0.15
0, 0.5
0, 0.4
0.00015, 0.001
1e-05, 0.06
0, 0.3
0.00022, 0.003
0.00045, 0.006
0.00104, 0.03
0, 0.1
