0.46024, 0.004
1, 0.8
0.99985, 1
0.42453, 0.003
0.7176, 0.08
0.99991, 0.6
0.61187, 0.01
0.35984, 0.0015
0.49262, 0.005
0.33475, 0.001
0.72419, 0.03
0.95202, 0.3
0.52254, 0.006
0.99763, 0.4
0.70392, 0.02
0.99982, 0.5
0.57167, 0.008
0.37938, 0.002
0.7604, 0.15
0.72198, 0.1
0.71698, 0.06
0.82216, 0.2
0.72101, 0.05
0.72725, 0.04
0.67294, 0.015
