0, 0.3
0.1892, 0.004
0.19023, 0.003
0.18589, 0.006
0.18856, 0.002
0.12208, 0.05
0.16721, 0.015
0.00264, 0.2
0.18345, 0.008
0.00594, 0.4
0.0438, 0.6
0.18004, 0.01
0.06446, 0.1
0.02363, 0.5
0.13404, 0.04
0.14158, 1
0.19069, 0.0015
0.08553, 0.08
0.02512, 0.15
0.10819, 0.06
0.19223, 0.001
0.1874, 0.005
0.14588, 0.03
0.08795, 0.8
0.16385, 0.02
