0.1855, 0.015
0.1885, 0.008
0.1818, 0.02
0.1856, 0.005
0.1302, 0.15
0.1615, 0.05
0.1764, 0.03
0.0257, 0.8
0.1864, 0.003
0.1898, 0.004
0.1982, 0.0015
0.1948, 0.002
0.0933, 0.3
0.0571, 0.5
0.1907, 0.006
0.1902, 0.01
0.1931, 0.001
0.1529, 0.08
0.1776, 0.04
0.1584, 0.06
0.0485, 0.6
0.1455, 0.1
0.1139, 0.2
0.0747, 0.4
0.0078, 1
