0.18667, 0.02
0.19204, 0.006
0.1932, 0.005
0.19168, 0.003
0.26529, 1
0.22698, 0.6
0.19193, 0.015
0.18288, 0.06
0.19241, 0.008
0.25223, 0.8
0.19286, 0.3
0.1917, 0.001
0.18414, 0.1
0.18534, 0.03
0.21855, 0.5
0.18661, 0.04
0.19296, 0.002
0.19296, 0.004
0.20569, 0.4
0.18507, 0.05
0.19087, 0.0015
0.18506, 0.15
0.18964, 0.01
0.18269, 0.08
0.18406, 0.2
