0.14798, 0.08
0.1219, 0.15
0.16317, 0.05
0.18917, 0.006
0.16869, 0.04
0.19227, 0.005
0.04397, 0.6
0.1921, 0.002
0.17086, 0.03
0.19007, 0.0015
0.14046, 0.1
0.18437, 0.01
0.05469, 0.5
0.19153, 0.001
0.02561, 0.8
0.18364, 0.015
0.11037, 0.2
0.18759, 0.008
0.07026, 0.4
0.15698, 0.06
0.19176, 0.004
0.00721, 1
0.17659, 0.02
0.08584, 0.3
0.1902, 0.003
