0,0.01589,0,1
0,0.02517,0,2
0,0.03451,0,3
0,0.04201,0,4
0,0.05047,0,5
0,0.05709,0,6
0,0.07119,0,8
0,0.08295,0,10
0,0.13555,0,20
0,0.17923,0,30
0,0.21845,0,40
0,0.25437,0,50
0,0.28292,0,60
0,0.34207,0,80
0,0.39137,0,100
