0.0009, 0.002
0.0009, 0.003
0.0003, 0.03
0, 0.02
0.0022, 0.005
0.0004, 0.001
0.0006, 0.0015
0.0015, 0.004
0.0011, 0.006
0.0014, 0.008
0, 0.015
0.0009, 0.01
0.0056, 0.05
0.0028, 0.04
0.0107, 0.06
0.02, 0.08
0.0229, 0.1
0.0468, 0.15
0.0658, 0.2
0.1005, 0.3
