0, 0.8
0, 0.6
0, 1
0.06117, 0.4
0.22467, 0.001
0.26063, 0.002
0.36812, 0.006
0.29153, 0.003
0.47394, 0.015
0.3801, 0.05
0.30541, 0.1
0.43141, 0.01
0.40827, 0.04
6e-05, 0.5
0.32242, 0.004
0.23675, 0.3
0.48298, 0.02
0.35841, 0.06
0.40399, 0.008
0.27358, 0.15
0.3229, 0.08
0.4507, 0.03
0.24368, 0.2
0.21453, 0.0015
0.26618, 0.005
