0.24532, 0.002
0.44856, 0.4
0.47788, 0.015
0.23141, 0.0015
0.32196, 0.005
0.41788, 0.01
0.30004, 0.004
0.47412, 0.3
0.4998, 0.2
0.56038, 0.08
0.55416, 0.1
0.52701, 0.15
0.57457, 0.05
0.00032, 1
0.01406, 0.8
0.21799, 0.001
0.27467, 0.003
0.06697, 0.6
0.385, 0.008
0.34598, 0.006
0.2778, 0.5
0.57858, 0.04
0.51962, 0.02
0.56206, 0.03
0.57263, 0.06
