1, 1
1, 0.8
1, 0.5
1, 0.6
1, 0.4
1, 0.3
1, 0.2
0.07043, 0.0015
0.23, 0.006
0.20019, 0.005
0.27448, 0.008
0.13326, 0.003
0.31817, 0.01
0.99995, 0.15
0.16901, 0.004
0.99423, 0.1
0.04911, 0.001
0.09255, 0.002
0.43564, 0.02
0.96769, 0.08
0.38833, 0.015
0.51189, 0.03
0.85964, 0.06
0.61109, 0.04
0.74329, 0.05
