1, 1
0.04758, 0.001
0.08879, 0.002
1, 0.8
1, 0.6
1, 0.5
0.28532, 0.01
0.06744, 0.0015
0.12593, 0.003
0.15742, 0.004
0.18338, 0.005
0.99999, 0.4
0.21186, 0.006
0.2544, 0.008
0.36969, 0.02
0.99969, 0.3
0.34615, 0.015
0.37919, 0.03
0.96019, 0.15
0.9933, 0.2
0.36944, 0.04
0.37985, 0.05
0.78445, 0.1
0.4345, 0.06
0.61759, 0.08
