1, 1
1, 0.8
1, 0.4
1, 0.6
1, 0.3
0.06081, 0.001
1, 0.5
0.08897, 0.0015
0.16228, 0.003
0.20538, 0.004
0.11325, 0.002
0.99976, 0.2
0.27553, 0.006
0.2424, 0.005
0.33527, 0.008
0.38026, 0.01
0.9973, 0.15
0.47011, 0.015
0.52381, 0.02
0.96416, 0.1
0.91082, 0.08
0.60528, 0.03
0.80929, 0.06
0.67197, 0.04
0.7378, 0.05
